segment_[0-9]_2:1	1939
segment_[0-9]_3:1	1934
segment_len_3:2	1926
segment_[0-9]_1:1	1916
segment_len_1:4	1911
segment_len_2:2	1903
segments:5	1648
segment_len_0:4	1474
segment_name_0:news	1424
segment_name_1:2012	348
segment_len_4:6	334
segment_len_4:5	305
segment_len_4:7	297
segments:6	258
segment_len_4:4	238
segment_name_1:2011	228
segment_name_1:2013	226
segment_len_4:8	218
segment_name_2:10	192
segment_len_0:5	188
segment_name_2:12	176
segment_name_2:05	169
segment_name_2:11	161
segment_len_0:8	161
segment_name_1:2009	161
segment_name_2:04	158
segment_name_2:09	158
segment_name_2:02	157
segment_name_1:2014	157
segment_name_1:2010	157
segment_name_2:03	152
segment_ext_5:htm	151
segment_len_4:3	149
segment_name_2:06	147
segment_name_2:07	145
segment_name_2:01	144
segment_len_4:9	138
segment_name_2:08	135
segment_name_0:articles	129
segment_name_1:2008	126
segment_len_5:12	124
segment_name_5:_Printed.htm	116
segment_len_0:6	105
