segment_len_0:7	930
segments:3	814
segment_len_1:5	487
segment_name_0:content	473
segment_[0-9]_3:1	454
segment_len_1:4	416
segment_[0-9]_4:1	411
segment_[0-9]_5:1	379
segment_[0-9]_2:1	378
segment_[0-9]_1:1	376
segment_name_0:archive	375
segments:2	360
segment_len_3:1	327
segment_name_1:news	305
segment_len_1:8	284
segment_name_1:articles	274
segment_len_1:6	266
segment_len_2:7	262
segment_len_2:4	260
segment_[0-9]_6:1	249
segments:5	242
segment_len_4:4	239
segment_[0-9]_7:1	235
segment_len_0:1	235
segment_name_0:a	233
segments:8	226
segment_len_1:3	224
segment_name_2:preview	215
segment_name_1:image	215
segment_len_3:2	196
segment_len_5:5	191
segment_len_0:5	191
segment_name_0:forum	187
segment_len_0:4	181
segments:4	168
segment_len_0:6	168
segment_name_3:1	157
segment_name_1:topic	155
segment_len_0:8	153
segment_name_0:category	140
segment_len_4:3	116
segments:7	116
segment_len_7:3	112
segment_name_7:350	111
segment_len_5:2	111
segment_len_1:2	109
segment_name_1:zr	108
segment_len_2:2	108
segment_ext_6:jpg	106
segment_len_7:2	104
segment_name_7:70	103
segment_name_3:c	101
segment_len_0:10	101
segment_name_0:site-thumb	101
segment_len_6:5	101
