segment_[0-9]_2:1	972
segment_len_3:2	964
segment_[0-9]_3:1	964
segment_len_1:4	961
segment_[0-9]_1:1	955
segment_len_2:2	948
segments:5	745
segment_len_0:4	648
segment_name_0:news	610
segments:6	199
segment_len_4:6	174
segment_len_4:5	153
segment_len_0:5	134
segment_len_4:7	128
segment_len_4:4	125
segment_ext_5:htm	119
segment_len_4:8	110
segment_name_1:2009	107
segment_name_1:2010	101
segment_len_0:4	987
segment_name_0:wiki	986
segments:2	939
